<?xml version="1.0" encoding="UTF-8"?>
<svg width="24px" height="24px" viewBox="0 0 24 24" version="1.1" xmlns="http://www.w3.org/2000/svg" xmlns:xlink="http://www.w3.org/1999/xlink">
    <title>Icon / 24 px / Bin</title>
    <g id="Icon-/-24-px-/-Bin" stroke="none" stroke-width="1" fill="none" fill-rule="evenodd">
        <polygon id="Rectangle" stroke="#FFFFFF" stroke-width="2" stroke-linejoin="round" points="4 6 20 6 18.6666667 23 5.33333333 23"></polygon>
        <line x1="1" y1="6" x2="23" y2="6" id="Path-10" stroke="#FFFFFF" stroke-width="2" stroke-linecap="round"></line>
        <path d="M7,6 C7,2.66666667 7,1 7,1 C7,1 10.3333333,1 17,1 L17,6" id="Path-12" stroke="#FFFFFF" stroke-width="2" stroke-linecap="round" stroke-linejoin="round"></path>
    </g>
</svg>